{
	"name": "layer",
	"version": "2.1",
	"domain": "mitre-enterprise",
	"description": "",
	"filters": {
		"stages": [
			"act"
		],
		"platforms": [
			"windows",
			"linux",
			"mac"
		]
	},
	"sorting": 0,
	"viewMode": 0,
	"hideDisabled": false,
	"techniques": [
		{
			"techniqueID": "T1109",
			"tactic": "defense-evasion",
			"color": "",
			"comment": "",
			"enabled": false,
			"metadata": []
		},
		{
			"techniqueID": "T1109",
			"tactic": "persistence",
			"color": "",
			"comment": "",
			"enabled": false,
			"metadata": []
		},
		{
			"techniqueID": "T1081",
			"tactic": "credential-access",
			"color": "",
			"comment": "",
			"enabled": false,
			"metadata": []
		},
		{
			"techniqueID": "T1037",
			"tactic": "lateral-movement",
			"color": "",
			"comment": "",
			"enabled": false,
			"metadata": []
		},
		{
			"techniqueID": "T1037",
			"tactic": "persistence",
			"color": "",
			"comment": "",
			"enabled": false,
			"metadata": []
		}
	],
	"gradient": {
		"colors": [
			"#ff6666",
			"#ffe766",
			"#8ec843"
		],
		"minValue": 0,
		"maxValue": 100
	},
	"legendItems": [],
	"metadata": [],
	"showTacticRowBackground": false,
	"tacticRowBackground": "#dddddd",
	"selectTechniquesAcrossTactics": true
}
